cpu/simulation/qsim/cpu.msim.vcd
$comment
	File created using the following command:
		vcd file cpu.msim.vcd -direction
$end
$date
	Thu Nov 07 17:54:01 2024
$end
$version
	ModelSim Version 10.5b
$end
$timescale
	1ps
$end

$scope module cpu_vlg_vec_tst $end
$var reg 1 ! CLKFPGA $end
$var reg 1 " clock $end
$var reg 1 # clock_sim $end
$var reg 1 $ masterClear $end
$var reg 1 % resetDeb $end
$var wire 1 & A0 $end
$var wire 1 ' A1 $end
$var wire 1 ( A2 $end
$var wire 1 ) A3 $end
$var wire 1 * A4 $end
$var wire 1 + A5 $end
$var wire 1 , B0 $end
$var wire 1 - B1 $end
$var wire 1 . B2 $end
$var wire 1 / B3 $end
$var wire 1 0 B4 $end
$var wire 1 1 B5 $end
$var wire 1 2 C0 $end
$var wire 1 3 C1 $end
$var wire 1 4 C2 $end
$var wire 1 5 C3 $end
$var wire 1 6 C4 $end
$var wire 1 7 C5 $end
$var wire 1 8 COUNT [7] $end
$var wire 1 9 COUNT [6] $end
$var wire 1 : COUNT [5] $end
$var wire 1 ; COUNT [4] $end
$var wire 1 < COUNT [3] $end
$var wire 1 = COUNT [2] $end
$var wire 1 > COUNT [1] $end
$var wire 1 ? COUNT [0] $end
$var wire 1 @ D0 $end
$var wire 1 A D1 $end
$var wire 1 B D2 $end
$var wire 1 C D3 $end
$var wire 1 D D4 $end
$var wire 1 E D5 $end
$var wire 1 F E0 $end
$var wire 1 G E1 $end
$var wire 1 H E2 $end
$var wire 1 I E3 $end
$var wire 1 J E4 $end
$var wire 1 K E5 $end
$var wire 1 L F0 $end
$var wire 1 M F1 $end
$var wire 1 N F2 $end
$var wire 1 O F3 $end
$var wire 1 P F4 $end
$var wire 1 Q F5 $end
$var wire 1 R G0 $end
$var wire 1 S G1 $end
$var wire 1 T G2 $end
$var wire 1 U G3 $end
$var wire 1 V G4 $end
$var wire 1 W G5 $end
$var wire 1 X R1_ [3] $end
$var wire 1 Y R1_ [2] $end
$var wire 1 Z R1_ [1] $end
$var wire 1 [ R1_ [0] $end
$var wire 1 \ R2_ [3] $end
$var wire 1 ] R2_ [2] $end
$var wire 1 ^ R2_ [1] $end
$var wire 1 _ R2_ [0] $end
$var wire 1 ` ROM_ [15] $end
$var wire 1 a ROM_ [14] $end
$var wire 1 b ROM_ [13] $end
$var wire 1 c ROM_ [12] $end
$var wire 1 d ROM_ [11] $end
$var wire 1 e ROM_ [10] $end
$var wire 1 f ROM_ [9] $end
$var wire 1 g ROM_ [8] $end
$var wire 1 h ROM_ [7] $end
$var wire 1 i ROM_ [6] $end
$var wire 1 j ROM_ [5] $end
$var wire 1 k ROM_ [4] $end
$var wire 1 l ROM_ [3] $end
$var wire 1 m ROM_ [2] $end
$var wire 1 n ROM_ [1] $end
$var wire 1 o ROM_ [0] $end

$scope module i1 $end
$var wire 1 p gnd $end
$var wire 1 q vcc $end
$var wire 1 r unknown $end
$var tri1 1 s devclrn $end
$var tri1 1 t devpor $end
$var tri1 1 u devoe $end
$var wire 1 v CLKFPGA~input_o $end
$var wire 1 w resetDeb~input_o $end
$var wire 1 x clock~input_o $end
$var wire 1 y ~QUARTUS_CREATED_GND~I_combout $end
$var wire 1 z clock_sim~input_o $end
$var wire 1 { clock_sim~inputCLKENA0_outclk $end
$var wire 1 | masterClear~input_o $end
$var wire 1 } asjdb|inst7~1_combout $end
$var wire 1 ~ asjdb|inst21~combout $end
$var wire 1 !! asjdb|inst7~3_combout $end
$var wire 1 "! asjdb|inst7~0_combout $end
$var wire 1 #! asjdb|inst7~_emulated_q $end
$var wire 1 $! asjdb|inst7~2_combout $end
$var wire 1 %! asjdb|inst6~1_combout $end
$var wire 1 &! asjdb|inst20~combout $end
$var wire 1 '! asjdb|inst6~3_combout $end
$var wire 1 (! asjdb|inst6~0_combout $end
$var wire 1 )! asjdb|inst6~_emulated_q $end
$var wire 1 *! asjdb|inst6~2_combout $end
$var wire 1 +! asjdb|inst5~1_combout $end
$var wire 1 ,! asjdb|inst19~combout $end
$var wire 1 -! asjdb|inst5~3_combout $end
$var wire 1 .! asjdb|inst5~0_combout $end
$var wire 1 /! asjdb|inst5~_emulated_q $end
$var wire 1 0! asjdb|inst5~2_combout $end
$var wire 1 1! asjdb|inst4~1_combout $end
$var wire 1 2! asjdb|inst4~3_combout $end
$var wire 1 3! asjdb|inst4~0_combout $end
$var wire 1 4! asjdb|inst4~_emulated_q $end
$var wire 1 5! asjdb|inst4~2_combout $end
$var wire 1 6! asjdb|inst3~1_combout $end
$var wire 1 7! asjdb|inst3~3_combout $end
$var wire 1 8! asjdb|inst3~0_combout $end
$var wire 1 9! asjdb|inst3~_emulated_q $end
$var wire 1 :! asjdb|inst3~2_combout $end
$var wire 1 ;! asjdb|inst2~1_combout $end
$var wire 1 <! asjdb|inst2~3_combout $end
$var wire 1 =! asjdb|inst2~0_combout $end
$var wire 1 >! asjdb|inst2~_emulated_q $end
$var wire 1 ?! asjdb|inst2~2_combout $end
$var wire 1 @! asjdb|inst1~1_combout $end
$var wire 1 A! asjdb|inst1~3_combout $end
$var wire 1 B! asjdb|inst1~0_combout $end
$var wire 1 C! asjdb|inst1~_emulated_q $end
$var wire 1 D! asjdb|inst1~2_combout $end
$var wire 1 E! asjdb|inst~1_combout $end
$var wire 1 F! asjdb|inst~3_combout $end
$var wire 1 G! asjdb|inst~0_combout $end
$var wire 1 H! asjdb|inst~_emulated_q $end
$var wire 1 I! asjdb|inst~2_combout $end
$var wire 1 J! inst2|inst71~0_combout $end
$var wire 1 K! inst2|inst4~0_combout $end
$var wire 1 L! inst2|inst34~0_combout $end
$var wire 1 M! inst2|inst47~0_combout $end
$var wire 1 N! inst2|inst18~0_combout $end
$var wire 1 O! inst2|inst60~0_combout $end
$var wire 1 P! inst2|inst25~0_combout $end
$var wire 1 Q! BOSTA|inst71~0_combout $end
$var wire 1 R! BOSTA|inst4~0_combout $end
$var wire 1 S! BOSTA|inst34~0_combout $end
$var wire 1 T! BOSTA|inst47~0_combout $end
$var wire 1 U! BOSTA|inst18~0_combout $end
$var wire 1 V! BOSTA|inst60~0_combout $end
$var wire 1 W! BOSTA|inst25~0_combout $end
$var wire 1 X! bosta5|inst71~0_combout $end
$var wire 1 Y! bosta5|inst4~0_combout $end
$var wire 1 Z! bosta5|inst34~0_combout $end
$var wire 1 [! bosta5|inst47~0_combout $end
$var wire 1 \! bosta5|inst18~0_combout $end
$var wire 1 ]! bosta5|inst60~0_combout $end
$var wire 1 ^! bosta5|inst25~0_combout $end
$var wire 1 _! asdasdas|inst71~0_combout $end
$var wire 1 `! asdasdas|inst4~0_combout $end
$var wire 1 a! asdasdas|inst34~0_combout $end
$var wire 1 b! asdasdas|inst47~0_combout $end
$var wire 1 c! asdasdas|inst18~0_combout $end
$var wire 1 d! asdasdas|inst60~0_combout $end
$var wire 1 e! asdasdas|inst25~0_combout $end
$var wire 1 f! febreamarela~combout $end
$var wire 1 g! inst15|inst19~0_combout $end
$var wire 1 h! R2|inst15~q $end
$var wire 1 i! inst11|inst35[3]~2_combout $end
$var wire 1 j! inst11|inst34[0]~1_combout $end
$var wire 1 k! inst11|subtration|inst|inst~combout $end
$var wire 1 l! inst15|inst17~0_combout $end
$var wire 1 m! R1|inst2~q $end
$var wire 1 n! inst11|subtration|inst3|inst~combout $end
$var wire 1 o! inst11|inasdasjdjasst[0]~0_combout $end
$var wire 1 p! inst11|subtration|inst3|inst13~combout $end
$var wire 1 q! inst11|inst2~0_combout $end
$var wire 1 r! inst11|inst34[2]~0_combout $end
$var wire 1 s! R2|inst21~q $end
$var wire 1 t! oie|LPM_MUX_component|auto_generated|l1_w1_n0_mux_dataout~0_combout $end
$var wire 1 u! R1|inst13~q $end
$var wire 1 v! inst11|somation|soma3|inst6~combout $end
$var wire 1 w! inst11|inst35[2]~4_combout $end
$var wire 1 x! inst11|subtration|inst1|inst10~combout $end
$var wire 1 y! inst11|inst35[2]~5_combout $end
$var wire 1 z! R2|inst13~q $end
$var wire 1 {! oie|LPM_MUX_component|auto_generated|l1_w2_n0_mux_dataout~0_combout $end
$var wire 1 |! inst11|subtration|inst1|inst15~combout $end
$var wire 1 }! R2|inst2~q $end
$var wire 1 ~! inst11|somation|soma1|inst7~combout $end
$var wire 1 !" inst11|inst10[2]~1_combout $end
$var wire 1 "" inst11|somation|soma4|inst~0_combout $end
$var wire 1 #" inst11|inst10[1]~0_combout $end
$var wire 1 $" inst11|somation|soma4|inst~combout $end
$var wire 1 %" inst11|inst35[3]~3_combout $end
$var wire 1 &" R1|inst15~q $end
$var wire 1 '" inst11|inst32[1]~0_combout $end
$var wire 1 (" inst11|somation|soma2|inst6~combout $end
$var wire 1 )" inst11|inst35[1]~0_combout $end
$var wire 1 *" inst11|subtration|inst2|inst10~combout $end
$var wire 1 +" inst11|inst35[1]~1_combout $end
$var wire 1 ," R1|inst21~q $end
$var wire 1 -" qwe|inst71~0_combout $end
$var wire 1 ." qwe|inst4~0_combout $end
$var wire 1 /" qwe|inst34~0_combout $end
$var wire 1 0" qwe|inst47~0_combout $end
$var wire 1 1" qwe|inst18~0_combout $end
$var wire 1 2" qwe|inst60~0_combout $end
$var wire 1 3" qwe|inst25~0_combout $end
$var wire 1 4" yukt|inst71~0_combout $end
$var wire 1 5" yukt|inst4~0_combout $end
$var wire 1 6" yukt|inst34~0_combout $end
$var wire 1 7" yukt|inst47~0_combout $end
$var wire 1 8" yukt|inst18~0_combout $end
$var wire 1 9" yukt|inst60~0_combout $end
$var wire 1 :" yukt|inst25~0_combout $end
$var wire 1 ;" mostarda|altsyncram_component|auto_generated|q_a [15] $end
$var wire 1 <" mostarda|altsyncram_component|auto_generated|q_a [14] $end
$var wire 1 =" mostarda|altsyncram_component|auto_generated|q_a [13] $end
$var wire 1 >" mostarda|altsyncram_component|auto_generated|q_a [12] $end
$var wire 1 ?" mostarda|altsyncram_component|auto_generated|q_a [11] $end
$var wire 1 @" mostarda|altsyncram_component|auto_generated|q_a [10] $end
$var wire 1 A" mostarda|altsyncram_component|auto_generated|q_a [9] $end
$var wire 1 B" mostarda|altsyncram_component|auto_generated|q_a [8] $end
$var wire 1 C" mostarda|altsyncram_component|auto_generated|q_a [7] $end
$var wire 1 D" mostarda|altsyncram_component|auto_generated|q_a [6] $end
$var wire 1 E" mostarda|altsyncram_component|auto_generated|q_a [5] $end
$var wire 1 F" mostarda|altsyncram_component|auto_generated|q_a [4] $end
$var wire 1 G" mostarda|altsyncram_component|auto_generated|q_a [3] $end
$var wire 1 H" mostarda|altsyncram_component|auto_generated|q_a [2] $end
$var wire 1 I" mostarda|altsyncram_component|auto_generated|q_a [1] $end
$var wire 1 J" mostarda|altsyncram_component|auto_generated|q_a [0] $end
$var wire 1 K" inst11|inst35 [3] $end
$var wire 1 L" inst11|inst35 [2] $end
$var wire 1 M" inst11|inst35 [1] $end
$var wire 1 N" inst11|inst35 [0] $end
$var wire 1 O" inst6|inst4 [7] $end
$var wire 1 P" inst6|inst4 [6] $end
$var wire 1 Q" inst6|inst4 [5] $end
$var wire 1 R" inst6|inst4 [4] $end
$var wire 1 S" inst6|inst4 [3] $end
$var wire 1 T" inst6|inst4 [2] $end
$var wire 1 U" inst6|inst4 [1] $end
$var wire 1 V" inst6|inst4 [0] $end
$var wire 1 W" inst [7] $end
$var wire 1 X" inst [6] $end
$var wire 1 Y" inst [5] $end
$var wire 1 Z" inst [4] $end
$var wire 1 [" inst [3] $end
$var wire 1 \" inst [2] $end
$var wire 1 ]" inst [1] $end
$var wire 1 ^" inst [0] $end
$var wire 1 _" mostarda|altsyncram_component|auto_generated|ram_block1a0_PORTADATAOUT_bus [19] $end
$var wire 1 `" mostarda|altsyncram_component|auto_generated|ram_block1a0_PORTADATAOUT_bus [18] $end
$var wire 1 a" mostarda|altsyncram_component|auto_generated|ram_block1a0_PORTADATAOUT_bus [17] $end
$var wire 1 b" mostarda|altsyncram_component|auto_generated|ram_block1a0_PORTADATAOUT_bus [16] $end
$var wire 1 c" mostarda|altsyncram_component|auto_generated|ram_block1a0_PORTADATAOUT_bus [15] $end
$var wire 1 d" mostarda|altsyncram_component|auto_generated|ram_block1a0_PORTADATAOUT_bus [14] $end
$var wire 1 e" mostarda|altsyncram_component|auto_generated|ram_block1a0_PORTADATAOUT_bus [13] $end
$var wire 1 f" mostarda|altsyncram_component|auto_generated|ram_block1a0_PORTADATAOUT_bus [12] $end
$var wire 1 g" mostarda|altsyncram_component|auto_generated|ram_block1a0_PORTADATAOUT_bus [11] $end
$var wire 1 h" mostarda|altsyncram_component|auto_generated|ram_block1a0_PORTADATAOUT_bus [10] $end
$var wire 1 i" mostarda|altsyncram_component|auto_generated|ram_block1a0_PORTADATAOUT_bus [9] $end
$var wire 1 j" mostarda|altsyncram_component|auto_generated|ram_block1a0_PORTADATAOUT_bus [8] $end
$var wire 1 k" mostarda|altsyncram_component|auto_generated|ram_block1a0_PORTADATAOUT_bus [7] $end
$var wire 1 l" mostarda|altsyncram_component|auto_generated|ram_block1a0_PORTADATAOUT_bus [6] $end
$var wire 1 m" mostarda|altsyncram_component|auto_generated|ram_block1a0_PORTADATAOUT_bus [5] $end
$var wire 1 n" mostarda|altsyncram_component|auto_generated|ram_block1a0_PORTADATAOUT_bus [4] $end
$var wire 1 o" mostarda|altsyncram_component|auto_generated|ram_block1a0_PORTADATAOUT_bus [3] $end
$var wire 1 p" mostarda|altsyncram_component|auto_generated|ram_block1a0_PORTADATAOUT_bus [2] $end
$var wire 1 q" mostarda|altsyncram_component|auto_generated|ram_block1a0_PORTADATAOUT_bus [1] $end
$var wire 1 r" mostarda|altsyncram_component|auto_generated|ram_block1a0_PORTADATAOUT_bus [0] $end
$upscope $end
$upscope $end
$enddefinitions $end
#0
$dumpvars
x!
x"
0#
1$
0%
0&
0'
0(
0)
0*
0+
0,
0-
0.
0/
00
01
02
03
04
05
06
07
0?
0>
0=
0<
0;
0:
09
08
0@
0A
0B
0C
0D
0E
0F
0G
0H
0I
0J
0K
0L
0M
0N
0O
0P
0Q
1R
1S
1T
1U
1V
1W
0[
0Z
0Y
0X
0_
0^
0]
0\
0o
0n
0m
0l
0k
0j
0i
0h
0g
0f
0e
0d
0c
0b
0a
0`
0p
1q
xr
1s
1t
1u
xv
0w
xx
0y
0z
0{
1|
0}
0~
0!!
1"!
0#!
0$!
0%!
0&!
0'!
1(!
0)!
0*!
0+!
0,!
0-!
1.!
0/!
00!
01!
02!
13!
04!
05!
06!
07!
18!
09!
0:!
0;!
0<!
1=!
0>!
0?!
0@!
0A!
1B!
0C!
0D!
0E!
1F!
1G!
0H!
0I!
1J!
0K!
0L!
0M!
0N!
0O!
0P!
1Q!
0R!
0S!
0T!
0U!
0V!
0W!
1X!
0Y!
0Z!
0[!
0\!
0]!
0^!
1_!
0`!
0a!
0b!
0c!
0d!
0e!
1f!
0g!
0h!
0i!
0j!
0k!
0l!
0m!
0n!
0o!
0p!
0q!
0r!
0s!
0t!
0u!
0v!
0w!
0x!
0y!
0z!
0{!
0|!
0}!
0~!
0!"
0""
0#"
0$"
0%"
0&"
0'"
0("
0)"
0*"
0+"
0,"
1-"
0."
0/"
00"
01"
02"
03"
14"
05"
06"
07"
08"
09"
0:"
0J"
0I"
0H"
0G"
0F"
0E"
0D"
0C"
0B"
0A"
0@"
0?"
0>"
0="
0<"
0;"
0N"
zM"
zL"
zK"
0V"
0U"
0T"
0S"
0R"
0Q"
0P"
0O"
1^"
1]"
1\"
1["
1Z"
1Y"
1X"
1W"
0r"
0q"
0p"
0o"
0n"
0m"
0l"
0k"
0j"
0i"
0h"
0g"
0f"
0e"
0d"
0c"
0b"
0a"
0`"
0_"
$end
#500000
1#
1z
1{
#1000000
0$
0#
0|
0z
0{
0^"
0]"
0\"
0["
0Z"
0Y"
0X"
0W"
0f!
0"!
0(!
0.!
03!
08!
0=!
0B!
0G!
#1000001
1p"
1e"
1d"
1H"
1="
1<"
1a
1b
1m
1l!
1!"
1v!
1N!
0J!
1b!
1a!
1`!
0_!
0T
1(
1B
1H
0W
11
1w!
1y!
#1500000
1#
1z
1{
1H!
1u!
1Y
1I!
10"
1/"
1."
0-"
0S
1'
1A
1G
1?
0F!
1A!
#2000000
0#
0z
0{
#2000001
1q"
0p"
1j"
1f"
0e"
0d"
1c"
1I"
0H"
1B"
1>"
0="
0<"
1;"
1`
0a
0b
1c
1g
0m
1n
1g!
0l!
1{!
0!"
0N!
1M!
1V!
1T!
1S!
1R!
1e!
1d!
0b!
0a!
0`!
0(
0B
0H
1N
14
1*
1D
1J
1P
1K
01
1x!
#2500000
1#
1z
1{
0H!
1C!
1z!
1]
1D!
0I!
17"
16"
15"
04"
0R
1&
1@
1F
0?
1>
1F!
#3000000
0#
0z
0{
#3000001
1r"
0q"
0j"
1i"
0f"
1e"
1d"
0c"
1J"
0I"
0B"
1A"
0>"
1="
1<"
0;"
0`
1a
1b
0c
1f
0g
0n
1o
0g!
1l!
1'"
1p!
1n!
0w!
1q!
1N!
0M!
1W!
0T!
0S!
0R!
0Q!
0e!
1b!
1a!
1`!
1_!
1T
1(
1B
1H
04
0V
0*
0D
0J
16
0K
11
1*"
0x!
1N"
0y!
1+"
#3500000
1#
1z
1{
1H!
1,"
0u!
1m!
1[
0Y
1Z
1I!
12"
0/"
0."
0'
0A
1M
1?
0F!
0A!
1<!
#4000000
0#
0z
0{
#4000001
1p"
1j"
1H"
1B"
1g
1m
1)"
0'"
0q!
0p!
0n!
1|!
1x!
0W!
1T!
0d!
1c!
0a!
0`!
0_!
0T
0(
0B
1.
0N
1J
06
0*"
0|!
0N"
#4500000
1#
1z
1{
0H!
0C!
1>!
0m!
0[
1?!
0D!
0I!
13"
00"
0G
13
0?
0>
1=
1F!
#5000000
0#
0z
0{
#5000001
0r"
1q"
0p"
0j"
0i"
1f"
0e"
0d"
1c"
0J"
1I"
0H"
0B"
0A"
1>"
0="
0<"
1;"
1`
0a
0b
1c
0f
0g
0m
1n
0o
1g!
0l!
0{!
0v!
1t!
0)"
1#"
1w!
0N!
1M!
0V!
0T!
1Q!
1e!
1d!
0c!
0b!
0H
0.
1N
14
1V
0J
0P
1K
01
1*"
0x!
1y!
0+"
#5500000
1#
1z
1{
1H!
1I!
1?
0F!
1A!
#6000000
0#
0z
0{
#6000001
0f"
1e"
1d"
0c"
0>"
1="
1<"
0;"
0`
1a
1b
0c
0g!
1l!
1("
1{!
1v!
0t!
1N!
0M!
0K
11
0*"
1x!
1)"
1+"
#6500000
1#
1z
1{
0H!
1C!
1u!
1Y
1D!
0I!
03"
02"
11"
1-
0M
03
0?
1>
1F!
#7000000
0#
0z
0{
#7000001
1r"
1f"
0e"
0d"
1c"
1J"
1>"
0="
0<"
1;"
1`
0a
0b
1c
1o
1g!
0l!
0("
1t!
1o!
0N!
1M!
0e!
1b!
1H
04
1K
01
1*"
1$"
0w!
0)"
1N"
0+"
0y!
1%"
#7500000
1#
1z
1{
1H!
1}!
0z!
1h!
1\
0]
1_
1I!
06"
05"
0&
0@
1?
0F!
0A!
0<!
17!
#8000000
0#
0z
0{
#8000001
0r"
0q"
1h"
0f"
0c"
0J"
0I"
1@"
0>"
0;"
0`
0c
1e
0n
0o
0g!
1""
0{!
0v!
0t!
1n!
1k!
1f!
0#"
1w!
0M!
1J!
1T!
1S!
1R!
0Q!
0d!
0b!
1_!
1T
0H
0N
0V
1*
1D
1J
1W
0K
0*"
0x!
0w!
1y!
0y!
0h!
0u!
0}!
0,"
0Z
0_
0Y
0\
0o!
0n!
0""
0k!
01"
1-"
07"
14"
1R
0F
1S
0-
0$"
0N"
0%"
#8500000
1#
1z
1{
0H!
0C!
0>!
19!
1:!
0?!
0D!
0I!
0?
0>
0=
1<
1F!
#9000000
0#
0z
0{
#9000001
1r"
1p"
1o"
1g"
1J"
1H"
1G"
1?"
1d
1l
1m
1o
0f!
1""
1!"
1v!
1o!
1W!
1U!
0T!
0S!
0R!
1Q!
1d!
1`!
0_!
0T
1(
1N
1V
0*
0D
0J
10
16
1w!
1$"
1N"
1%"
1y!
#9500000
1#
1z
1{
1V"
1]"
1T"
1S"
1Z"
1Y"
1X"
1W"
1"!
1(!
1.!
13!
18!
16!
1=!
1;!
1B!
1G!
1E!
1?!
1I!
1?
1=
07!
1A!
09!
#10000000
0#
0z
0{
0V"
0]"
0T"
0S"
0Z"
0Y"
0X"
0W"
0"!
0(!
0.!
03!
08!
0=!
0B!
0G!
#10000001
0r"
1q"
0p"
0o"
0h"
0g"
1f"
1c"
0J"
1I"
0H"
0G"
0@"
0?"
1>"
1;"
1`
1c
0d
0e
0l
0m
1n
0o
1g!
1("
0""
0v!
0o!
0!"
1#"
1M!
0J!
0W!
0U!
1e!
0`!
0(
14
00
06
0W
1K
0$"
0w!
1)"
0N"
1+"
0y!
0%"
#10500000
1#
1z
1{
1H!
1C!
1s!
1^
1D!
0I!
1:"
19"
04"
0R
1L
12
0?
1>
0F!
#11000000
0#
0z
0{
#11000001
1j"
1i"
0f"
1e"
1d"
0c"
1B"
1A"
0>"
1="
1<"
0;"
0`
1a
1b
0c
1f
1g
0g!
1l!
1t!
0)"
0#"
1j!
1N!
0M!
1V!
1T!
0Q!
0V
1J
1P
0K
11
1*"
1N"
0+"
#11500000
1#
1z
1{
0H!
1m!
1[
1I!
12"
10"
1/"
1."
1'
1A
1G
1M
1?
1,!
1F!
0A!
1<!
17!
12!
#12000000
0#
0z
0{
#12000001
1r"
0q"
0i"
1J"
0I"
0A"
0f
0n
1o
1)"
0j!
1S!
1R!
1Q!
0e!
1b!
1a!
1`!
1_!
1T
1(
1B
1H
04
1V
1*
1D
0N"
1+"
#12500000
1#
1z
1{
1H!
0C!
1>!
19!
14!
1,"
0m!
0[
1Z
15!
0:!
0?!
0D!
0I!
13"
00"
0/"
0."
0-"
0S
0'
0A
0G
13
0?
0>
0=
0<
1;
0,!
0F!
1-!
0-!
#13000000
0#
0z
0{
#13000001
0r"
1q"
1i"
1f"
0e"
0d"
1c"
0J"
1I"
1A"
1>"
0="
0<"
1;"
1`
0a
0b
1c
1f
1n
0o
1g!
0l!
0)"
1j!
0N!
1M!
0S!
0R!
0Q!
1e!
0b!
0a!
0`!
0_!
0T
0(
0B
0H
14
0V
0*
0D
1K
01
1N"
0+"
#13500000
1#
1z
1{
0H!
1}!
0s!
0^
1_
1I!
0:"
17"
16"
15"
14"
1R
1&
1@
1F
02
1?
1F!
1A!
#14000000
0#
0z
0{
#14000001
0q"
0j"
0f"
1e"
1d"
0c"
0I"
0B"
0>"
1="
1<"
0;"
0`
1a
1b
0c
0g
0n
0g!
1l!
0("
1'"
0t!
1n!
1q!
0j!
1N!
0M!
1W!
0T!
0e!
0d!
1_!
1T
0N
04
0J
16
0K
11
0*"
1+"
0+"
#14500000
1#
1z
1{
1H!
1C!
0,"
1m!
1[
0Z
1D!
0I!
03"
10"
1/"
1."
1-"
1S
1'
1A
1G
03
0?
1>
0F!
#15000000
0#
0z
0{
#15000001
1r"
1q"
0i"
1J"
1I"
0A"
0f
1n
1o
1("
0'"
1#"
1~!
0q!
1*"
1|!
1x!
0W!
0V!
1Q!
1d!
1b!
0_!
0T
1H
1N
1V
0P
06
0*"
0|!
0x!
1w!
0N"
1y!
#15500000
1#
1z
1{
0H!
1u!
0m!
0[
1Y
1I!
02"
0-"
0S
0M
1?
1F!
0A!
0<!
#16000000
0#
0z
0{
#16000001
0r"
0q"
1g"
0e"
0d"
0J"
0I"
1?"
0="
0<"
0a
0b
1d
0n
0o
0l!
1f!
1^"
1]"
1\"
1["
1Z"
1Y"
1X"
1W"
0("
0#"
0w!
0~!
1o!
0N!
1J!
0Q!
0d!
0b!
1_!
1T
0H
0N
0V
1W
01
1"!
1(!
1.!
13!
18!
06!
1=!
0;!
1B!
1G!
0E!
1N"
0y!
05!
0D!
0I!
0?
0>
0;
07!
02!
04!
09!
0>!
0C!
0u!
0}!
0_
0Y
0o!
0n!
09"
07"
06"
05"
00"
0/"
0."
1-"
1S
0'
0A
0G
0&
0@
0F
0L
0N"
#16500000
1#
1z
1{
#17000000
0#
0z
0{
#17000001
1p"
0g"
1e"
1d"
1H"
0?"
1="
1<"
1a
1b
0d
1m
1l!
0f!
0^"
0]"
0\"
0["
0Z"
0Y"
0X"
0W"
1!"
1v!
1N!
0J!
1Q!
1b!
1a!
1`!
0_!
0T
1(
1B
1H
1V
0W
11
1w!
0"!
0(!
0.!
03!
08!
0=!
0B!
0G!
1y!
#17500000
1#
1z
1{
1H!
1u!
1Y
1I!
10"
1/"
1."
0-"
0S
1'
1A
1G
1?
0F!
1A!
#18000000
0#
0z
0{
#18000001
1q"
0p"
1j"
1f"
0e"
0d"
1c"
1I"
0H"
1B"
1>"
0="
0<"
1;"
1`
0a
0b
1c
1g
0m
1n
1g!
0l!
1{!
0!"
0N!
1M!
1V!
1T!
1S!
1R!
1e!
1d!
0b!
0a!
0`!
0(
0B
0H
1N
14
1*
1D
1J
1P
1K
01
1x!
#18500000
1#
1z
1{
0H!
1C!
1z!
1]
1D!
0I!
17"
16"
15"
04"
0R
1&
1@
1F
0?
1>
1F!
#19000000
0#
0z
0{
#19000001
1r"
0q"
0j"
1i"
0f"
1e"
1d"
0c"
1J"
0I"
0B"
1A"
0>"
1="
1<"
0;"
0`
1a
1b
0c
1f
0g
0n
1o
0g!
1l!
1'"
1p!
1n!
0w!
1q!
1N!
0M!
1W!
0T!
0S!
0R!
0Q!
0e!
1b!
1a!
1`!
1_!
1T
1(
1B
1H
04
0V
0*
0D
0J
16
0K
11
1*"
0x!
1N"
0y!
1+"
#19500000
1#
1z
1{
1H!
1,"
0u!
1m!
1[
0Y
1Z
1I!
12"
0/"
0."
0'
0A
1M
1?
0F!
0A!
1<!
#20000000
0#
0z
0{
#20000001
1p"
1j"
1H"
1B"
1g
1m
1)"
0'"
0q!
0p!
0n!
1|!
1x!
0W!
1T!
0d!
1c!
0a!
0`!
0_!
0T
0(
0B
1.
0N
1J
06
0*"
0|!
0N"
#20500000
1#
1z
1{
0H!
0C!
1>!
0m!
0[
1?!
0D!
0I!
13"
00"
0G
13
0?
0>
1=
1F!
#21000000
0#
0z
0{
#21000001
0r"
1q"
0p"
0j"
0i"
1f"
0e"
0d"
1c"
0J"
1I"
0H"
0B"
0A"
1>"
0="
0<"
1;"
1`
0a
0b
1c
0f
0g
0m
1n
0o
1g!
0l!
0{!
0v!
1t!
0)"
1#"
1w!
0N!
1M!
0V!
0T!
1Q!
1e!
1d!
0c!
0b!
0H
0.
1N
14
1V
0J
0P
1K
01
1*"
0x!
1y!
0+"
#21500000
1#
1z
1{
1H!
1I!
1?
0F!
1A!
#22000000
0#
0z
0{
#22000001
0f"
1e"
1d"
0c"
0>"
1="
1<"
0;"
0`
1a
1b
0c
0g!
1l!
1("
1{!
1v!
0t!
1N!
0M!
0K
11
0*"
1x!
1)"
1+"
#22500000
1#
1z
1{
0H!
1C!
1u!
1Y
1D!
0I!
03"
02"
11"
1-
0M
03
0?
1>
1F!
#23000000
0#
0z
0{
#23000001
1r"
1f"
0e"
0d"
1c"
1J"
1>"
0="
0<"
1;"
1`
0a
0b
1c
1o
1g!
0l!
0("
1t!
1o!
0N!
1M!
0e!
1b!
1H
04
1K
01
1*"
1$"
0w!
0)"
1N"
0+"
0y!
1%"
#23500000
1#
1z
1{
1H!
1}!
0z!
1h!
1\
0]
1_
1I!
06"
05"
0&
0@
1?
0F!
0A!
0<!
17!
#24000000
0#
0z
0{
#24000001
0r"
0q"
1h"
0f"
0c"
0J"
0I"
1@"
0>"
0;"
0`
0c
1e
0n
0o
0g!
1""
0{!
0v!
0t!
1n!
1k!
1f!
0#"
1w!
0M!
1J!
1T!
1S!
1R!
0Q!
0d!
0b!
1_!
1T
0H
0N
0V
1*
1D
1J
1W
0K
0*"
0x!
0w!
1y!
0y!
0h!
0u!
0}!
0,"
0Z
0_
0Y
0\
0o!
0n!
0""
0k!
01"
1-"
07"
14"
1R
0F
1S
0-
0$"
0N"
0%"
#24500000
1#
1z
1{
0H!
0C!
0>!
19!
1:!
0?!
0D!
0I!
0?
0>
0=
1<
1F!
#25000000
0#
0z
0{
#25000001
1r"
1p"
1o"
1g"
1J"
1H"
1G"
1?"
1d
1l
1m
1o
0f!
1""
1!"
1v!
1o!
1W!
1U!
0T!
0S!
0R!
1Q!
1d!
1`!
0_!
0T
1(
1N
1V
0*
0D
0J
10
16
1w!
1$"
1N"
1%"
1y!
#25500000
1#
1z
1{
1V"
1]"
1T"
1S"
1Z"
1Y"
1X"
1W"
1"!
1(!
1.!
13!
18!
16!
1=!
1;!
1B!
1G!
1E!
1?!
1I!
1?
1=
07!
1A!
09!
#26000000
0#
0z
0{
0V"
0]"
0T"
0S"
0Z"
0Y"
0X"
0W"
0"!
0(!
0.!
03!
08!
0=!
0B!
0G!
#26000001
0r"
1q"
0p"
0o"
0h"
0g"
1f"
1c"
0J"
1I"
0H"
0G"
0@"
0?"
1>"
1;"
1`
1c
0d
0e
0l
0m
1n
0o
1g!
1("
0""
0v!
0o!
0!"
1#"
1M!
0J!
0W!
0U!
1e!
0`!
0(
14
00
06
0W
1K
0$"
0w!
1)"
0N"
1+"
0y!
0%"
#26500000
1#
1z
1{
1H!
1C!
1s!
1^
1D!
0I!
1:"
19"
04"
0R
1L
12
0?
1>
0F!
#27000000
0#
0z
0{
#27000001
1j"
1i"
0f"
1e"
1d"
0c"
1B"
1A"
0>"
1="
1<"
0;"
0`
1a
1b
0c
1f
1g
0g!
1l!
1t!
0)"
0#"
1j!
1N!
0M!
1V!
1T!
0Q!
0V
1J
1P
0K
11
1*"
1N"
0+"
